<svg id="グループ_1938" data-name="グループ 1938" xmlns="http://www.w3.org/2000/svg" xmlns:xlink="http://www.w3.org/1999/xlink" width="430" height="114" viewBox="0 0 430 114">
  <defs>
    <clipPath id="clip-path">
      <rect id="長方形_404" data-name="長方形 404" width="430" height="114" fill="none"/>
    </clipPath>
  </defs>
  <g id="グループ_1937" data-name="グループ 1937" clip-path="url(#clip-path)">
    <path id="パス_1992" data-name="パス 1992" d="M412.11,114H17.89A17.89,17.89,0,0,1,0,96.11V17.89A17.89,17.89,0,0,1,17.89,0H412.11A17.89,17.89,0,0,1,430,17.89V96.11A17.89,17.89,0,0,1,412.11,114" fill="#116300"/>
    <path id="パス_1993" data-name="パス 1993" d="M425.335,37.232c-9.3-4.495-20.213,7.661-35.661,12.234,4.788-3.084,15.555-10.49,11.879-17.9-2.773-5.59-8.529,10.905-16.99,17.2-2.753-1.1-5.608-1.188-6.694-.772-2.493-2.421-4.752-2.564-6.62-1.51C370,41.79,364.563,38.7,364.5,38.667a.617.617,0,0,0-.579,1.09,16.2,16.2,0,0,1,4.447,3.841,10.5,10.5,0,0,0-3.488-2.567.617.617,0,0,0-.311,1.194c.932.243,4.608,3.166,4.963,5.654-3.381,3.685-4.739,11.223-2.493,12.371a28.1,28.1,0,0,1,2.587-2.656c0,1.975-2.178,2.86-1.158,2.928,1.09.068,1.839-2.179,1.907-3.065a10.31,10.31,0,0,0,2.588-.953c-1.975,2.452.408,5.176-1.43,7.831s-2.929,3.542-1.226,5.176c-.749-1.7,4.154-4.7,3.269-9.261-.169-.87.476-1.431,1.295-2.18,1.156,7.151,2.995,4.767,3.744,3.882.136.613,1.7,1.43,2.724,1.43.885,3.677,1.7,4.086,3.609,4.018,0,2.247,1.975,9.534,2.724,11.372s2.111,0,1.226-.953-2.656-8.853-2.859-10.283c1.156.954,3.2,7.014,3.676,7.832s1.839.544,1.226-.477-1.7-4.9-2.588-6.2c1.5-.273,1.907-1.294,2.384-2.656a4.541,4.541,0,0,0,1.974.681,190.478,190.478,0,0,0,10.828,15.8c.681,1.021,3.95.272,1.567-.885s-4.972-5.38-6.947-9.67c2.52,3.745,12.259,8.035,14.846,10.351,7.014-17.5-16.889-28.6-19.884-24.244a1.884,1.884,0,0,0-2.315-.953,10.114,10.114,0,0,0-.121-1.122c21.876.909,44.524-13.99,34.647-18.763" fill="#277713"/>
    <path id="パス_1994" data-name="パス 1994" d="M4.166,35.654c6.778-3.275,14.726,5.582,25.981,8.914-3.488-2.247-11.333-7.643-8.655-13.042,2.021-4.073,6.215,7.945,12.379,12.53a8.271,8.271,0,0,1,4.877-.563c1.817-1.763,3.463-1.867,4.824-1.1.909-3.418,4.871-5.67,4.915-5.694a.45.45,0,0,1,.421.795,11.776,11.776,0,0,0-3.239,2.8,7.641,7.641,0,0,1,2.541-1.87.449.449,0,0,1,.226.87c-.679.177-3.357,2.306-3.615,4.119,2.464,2.685,3.453,8.177,1.816,9.013a20.619,20.619,0,0,0-1.885-1.935c0,1.439,1.588,2.084.843,2.134-.793.049-1.339-1.588-1.389-2.233a7.558,7.558,0,0,1-1.885-.695c1.439,1.787-.3,3.771,1.042,5.706s2.133,2.58.893,3.771c.546-1.24-3.027-3.424-2.382-6.748.123-.633-.347-1.042-.943-1.588-.843,5.21-2.183,3.474-2.728,2.829-.1.446-1.241,1.042-1.985,1.042-.645,2.679-1.24,2.976-2.63,2.927A40.49,40.49,0,0,1,31.6,65.92c-.546,1.339-1.538,0-.893-.695s1.935-6.45,2.083-7.492c-.843.695-2.331,5.111-2.679,5.706s-1.339.4-.893-.347,1.241-3.573,1.886-4.515c-1.092-.2-1.39-.943-1.737-1.935a3.315,3.315,0,0,1-1.439.5,138.889,138.889,0,0,1-7.889,11.511c-.5.744-2.878.2-1.141-.645s3.622-3.92,5.061-7.046c-1.836,2.729-8.931,5.855-10.816,7.542-5.111-12.752,12.3-20.839,14.487-17.664a1.373,1.373,0,0,1,1.687-.694,7.238,7.238,0,0,1,.088-.818c-15.939.662-32.44-10.192-25.243-13.67" fill="#277713"/>
    <path id="パス_1995" data-name="パス 1995" d="M265,39.3H126.12a11.644,11.644,0,0,1-11.61-11.61V25.609A11.644,11.644,0,0,1,126.12,14H265a11.644,11.644,0,0,1,11.61,11.609v2.079A11.644,11.644,0,0,1,265,39.3" fill="#fcdb4b"/>
    <path id="パス_1996" data-name="パス 1996" d="M127.151,34.4a18.1,18.1,0,0,0-2.344.071,8.684,8.684,0,0,1,2.749-5.864,23.126,23.126,0,0,1,2.883-2.25c1.551-1.1,1.922-1.594,1.922-2.516,0-.974-.843-1.647-2.057-1.647a2.206,2.206,0,0,0-1.956.956,3.436,3.436,0,0,0-.455,1.577l-2.984-.354a5.923,5.923,0,0,1,1.2-2.994,5.142,5.142,0,0,1,4.148-1.683c3.1,0,5.075,1.577,5.075,4.057a4.311,4.311,0,0,1-1.484,3.189,21.735,21.735,0,0,1-2.529,1.948,15.083,15.083,0,0,0-1.854,1.63,3.772,3.772,0,0,0-.793,1.311h4.265a16.079,16.079,0,0,0,2.58-.141v2.834A24.608,24.608,0,0,0,132.8,34.4Z" fill="#0e5b00"/>
    <path id="パス_1997" data-name="パス 1997" d="M137.677,28.641c.674-.8,1.163-1.4,1.483-1.789l3.829-4.818A17.975,17.975,0,0,0,144.455,20h2.85c-.085,1.028-.118,1.683-.118,2.976v5.776h.472a9.812,9.812,0,0,0,1.753-.142v2.728a13.537,13.537,0,0,0-1.753-.106h-.472v1.081a12.077,12.077,0,0,0,.135,2.09h-2.934a12.643,12.643,0,0,0,.135-2.126V31.21h-4.7c-1.012,0-1.585.018-2.142.071Zm6.879-3.135c0-.532.017-.957.085-1.931-.253.389-.591.832-1.029,1.4l-2.934,3.791h3.878Z" fill="#0e5b00"/>
    <path id="パス_1998" data-name="パス 1998" d="M151.657,23.831c0-.678-.014-1.032-.056-1.534a8.339,8.339,0,0,0,1.208.059h2.024a11.206,11.206,0,0,0,1.2-.045c-.028.34-.028.635-.028,1.447V32.4c0,.812,0,1.107.028,1.505h-1.686v-.738h-1.027v1.255h-1.742a15.3,15.3,0,0,0,.084-1.845Zm1.673,3.01h1.025V24.023H153.33Zm0,4.619h1.025V28.494H153.33Zm4.539-1.092c-.492,0-1.055.029-1.532.074V28.568a10.038,10.038,0,0,0,1.574.073h3.063V27.609h-3.063c-.576,0-1.139.029-1.574.073V25.853a13.873,13.873,0,0,0,1.6.074h1.251V24.761h-1c-.871.029-1.391.044-1.574.059V22.99a10.359,10.359,0,0,0,1.5.089h1.068V22.74a8.3,8.3,0,0,0-.07-1.078h1.925a4.638,4.638,0,0,0-.1,1.062v.355h1.321a10.494,10.494,0,0,0,1.5-.089v1.83a13.053,13.053,0,0,0-1.475-.059h-1.35v1.166h1.687a13.519,13.519,0,0,0,1.574-.074v1.829a8.625,8.625,0,0,0-1.377-.073H162.7v1.032a8.134,8.134,0,0,0,1.447-.073v1.874a9.359,9.359,0,0,0-1.447-.074V33.5c0,.8-.141,1.165-.534,1.4a3.565,3.565,0,0,1-1.911.339c-.126,0-.492-.015-.984-.029a4.881,4.881,0,0,0-.407-1.815,10.141,10.141,0,0,0,1.588.118c.407,0,.519-.074.519-.384V30.368h-2.838a10.54,10.54,0,0,1,1.756,2.169l-1.461,1.195a10.286,10.286,0,0,0-1.743-2.42l1.419-.944Z" fill="#0e5b00"/>
    <path id="パス_1999" data-name="パス 1999" d="M168.214,33.363a14.651,14.651,0,0,0,.084,1.889h-1.939a14.937,14.937,0,0,0,.084-1.9V23.639c0-.8-.013-1.195-.056-1.667a12.261,12.261,0,0,0,1.433.059h2.7a11.068,11.068,0,0,0,1.433-.059c-.028.428-.042.767-.042,1.357v2.479c0,.723,0,.974.028,1.314-.323-.015-.787-.03-1.222-.03h-2.5Zm0-9.37h2.052v-.6h-2.052Zm0,1.8h2.052v-.605h-2.052Zm7.125,6.669c0,.325,0,.546.014.841.366.03.548.044.731.044.492,0,.59-.059.59-.369V27.092h-2.7c-.436,0-.9.015-1.223.03.028-.443.028-.591.028-1.314V23.329c0-.516-.013-.885-.042-1.357a12.071,12.071,0,0,0,1.447.059h2.868a12.108,12.108,0,0,0,1.433-.059c-.043.531-.056.915-.056,1.653V33.26c0,.988-.183,1.431-.689,1.667a4.346,4.346,0,0,1-1.7.206c-.211,0-.253,0-1.012-.029a6.994,6.994,0,0,0-.3-1.4c-.266-.014-.393-.014-.646-.014h-2.965v.737h-1.687c.042-.427.057-.958.057-1.534V29.128c0-.516-.015-.914-.043-1.284.422.03.7.045,1.266.045h3.4c.576,0,.829-.015,1.265-.045-.028.355-.042.724-.042,1.284ZM171.123,30.1h2.6V29.35h-2.6Zm0,2.125h2.6v-.738h-2.6Zm3.331-8.234h2.22v-.6h-2.22Zm0,1.8h2.22v-.605h-2.22Z" fill="#0e5b00"/>
    <path id="パス_2000" data-name="パス 2000" d="M183.768,30.254a2.038,2.038,0,0,0,.624,1.275,2.709,2.709,0,0,0,1.989.745c1.484,0,2.428-.8,2.428-2.055,0-1.329-.859-2.02-2.546-2.02a17.176,17.176,0,0,0-2.04.089v-2.6a12.12,12.12,0,0,0,1.6.106,3.391,3.391,0,0,0,1.854-.408,1.725,1.725,0,0,0,.776-1.523c0-1.152-.708-1.719-2.108-1.719a2.126,2.126,0,0,0-1.769.78,2.4,2.4,0,0,0-.422.974l-3-.5a4.879,4.879,0,0,1,1.179-2.214,5.461,5.461,0,0,1,4.149-1.524,5.391,5.391,0,0,1,4,1.417,3.731,3.731,0,0,1,.2,4.713,3.5,3.5,0,0,1-2.04,1.169,3.768,3.768,0,0,1,2.377,1.222,3.614,3.614,0,0,1,.793,2.445,3.8,3.8,0,0,1-1.029,2.6,5.99,5.99,0,0,1-4.435,1.506,5.578,5.578,0,0,1-4.569-1.789,5.186,5.186,0,0,1-.978-2.126Z" fill="#0e5b00"/>
    <path id="パス_2001" data-name="パス 2001" d="M202.185,23.7a1.975,1.975,0,0,0-2.125-1.63,2.614,2.614,0,0,0-2.461,1.754,6.7,6.7,0,0,0-.574,2.551,3.326,3.326,0,0,1,1.129-.957,4.66,4.66,0,0,1,2.293-.513c2.968,0,4.789,1.842,4.789,4.854a5.221,5.221,0,0,1-1.315,3.454,5.378,5.378,0,0,1-3.945,1.524,4.961,4.961,0,0,1-4.064-1.789,8.847,8.847,0,0,1-1.551-5.51,10.9,10.9,0,0,1,1.129-5.084,5.066,5.066,0,0,1,4.57-2.64,5.229,5.229,0,0,1,3.271.974,4.7,4.7,0,0,1,1.6,2.357Zm-2.226,3.543a2.468,2.468,0,0,0-2.631,2.516,2.634,2.634,0,0,0,4.822,1.4,2.718,2.718,0,0,0,.338-1.417,2.28,2.28,0,0,0-2.529-2.5" fill="#0e5b00"/>
    <path id="パス_2002" data-name="パス 2002" d="M211.007,24.921c-.018.142-.067.532-.085.727a4.3,4.3,0,0,1,2.833-.939,4.588,4.588,0,0,1,3.423,1.381,4.73,4.73,0,0,1,1.23,3.437c0,3.242-2.023,5.227-5.31,5.227a5.294,5.294,0,0,1-4.132-1.578,5.5,5.5,0,0,1-1.18-2.214l2.832-.531a2.518,2.518,0,0,0,.473.992,2.3,2.3,0,0,0,1.922.832,2.463,2.463,0,0,0,2.58-2.657,2.39,2.39,0,0,0-2.479-2.6,2.755,2.755,0,0,0-1.9.691,1.994,1.994,0,0,0-.473.779l-2.629-.266c.134-.814.169-1.1.236-1.824l.388-4.571c.05-.673.05-.8.067-1.878a18.1,18.1,0,0,0,1.9.071h4.417a16.151,16.151,0,0,0,2.564-.124v2.657a18.233,18.233,0,0,0-2.53-.141h-3.928Z" fill="#0e5b00"/>
    <path id="パス_2003" data-name="パス 2003" d="M230.765,22.208a10.85,10.85,0,0,0,1.532-.074c-.057.62-.07,1.078-.07,1.579v9.562a17.78,17.78,0,0,0,.084,1.888H230.3v-.811H224.09v.811h-1.982c.056-.56.084-1.18.084-1.888V23.758c0-.562-.028-1.078-.07-1.624a15.72,15.72,0,0,0,1.588.074Zm-.464,1.859H224.09v3.158H230.3Zm-6.211,8.425H230.3V29.054H224.09Z" fill="#0e5b00"/>
    <path id="パス_2004" data-name="パス 2004" d="M238.087,22.946A8.945,8.945,0,0,0,238,21.6h1.925a8.935,8.935,0,0,0-.07,1.343V23.7h.815a9.277,9.277,0,0,0,1.377-.073v1.844a8.781,8.781,0,0,0-1-.045,16.257,16.257,0,0,1-.927,4.413c.716.914,1.152,1.49,1.953,2.655L240.8,34.086a23.427,23.427,0,0,0-1.545-2.375,15.865,15.865,0,0,1-2.685,3.481,5.924,5.924,0,0,0-1.236-1.682,9.387,9.387,0,0,0,2.726-3.393A26.414,26.414,0,0,0,235.74,27.5l1.194-1.328c1.293,1.372,1.293,1.372,1.869,2.051a12.158,12.158,0,0,0,.464-2.8h-2.43a9.343,9.343,0,0,0-1.335.075V23.61a10.27,10.27,0,0,0,1.432.088h1.153Zm4.947,4.013a20.432,20.432,0,0,1,1.939,3.468l-1.532,1.033a14.1,14.1,0,0,0-1.925-3.66Zm.618-.767a7.944,7.944,0,0,0-1.321.074V24.333a8.061,8.061,0,0,0,1.336.073h1.685v-.929a11.406,11.406,0,0,0-.1-1.815h1.981a15.254,15.254,0,0,0-.07,1.815v.929h.084a7.273,7.273,0,0,0,1.279-.088v1.948a1.457,1.457,0,0,1-.323-.03,7.3,7.3,0,0,0-.942-.044h-.1v7.023c0,.989-.155,1.358-.633,1.653a2.88,2.88,0,0,1-1.335.236c-.492.015-.787.029-1.04.029s-.421,0-.815-.014a7.114,7.114,0,0,0-.52-1.918,14.122,14.122,0,0,0,1.743.162c.674,0,.786-.044.786-.339V26.192Z" fill="#0e5b00"/>
    <path id="パス_2005" data-name="パス 2005" d="M252.9,24.687a38.24,38.24,0,0,1-.394,6.964,13.43,13.43,0,0,1-1.068,3.586,7.539,7.539,0,0,0-1.489-1.55,9.667,9.667,0,0,0,.871-2.892,49.926,49.926,0,0,0,.295-5.887c0-.959-.014-1.549-.056-2.066a15.012,15.012,0,0,0,1.5.059h3.513v-.59a4.265,4.265,0,0,0-.071-.782h2a4.076,4.076,0,0,0-.056.812v.56h3.471a12.616,12.616,0,0,0,1.714-.088v1.948a13.83,13.83,0,0,0-1.714-.074h-4.089A20.261,20.261,0,0,1,260.5,26.9l-1.278,1.431A12.906,12.906,0,0,0,255.7,25.69l1.1-1Zm-.239,8.646a9.846,9.846,0,0,0,.759-2.7,23.6,23.6,0,0,0,.253-2.774l1.686.443a19.768,19.768,0,0,1-1.082,6.049Zm5.1-6.227a9.306,9.306,0,0,0-.07,1.417V32.9c0,.339.1.4.675.4s.758-.073.842-.354a12.342,12.342,0,0,0,.114-2.213,6.065,6.065,0,0,0,1.672.59c-.113,2.007-.225,2.745-.52,3.187-.31.473-.872.65-2.122.65a5.542,5.542,0,0,1-1.869-.192.908.908,0,0,1-.563-.974V28.508a8.621,8.621,0,0,0-.084-1.4Zm3.879,7.009a18.426,18.426,0,0,0-1.616-5.548l1.574-.8a27.923,27.923,0,0,1,1.8,5.46Z" fill="#0e5b00"/>
    <path id="パス_2006" data-name="パス 2006" d="M399.794,39.3H299.333a11.644,11.644,0,0,1-11.61-11.61V25.609A11.644,11.644,0,0,1,299.333,14H399.794A11.644,11.644,0,0,1,411.4,25.609v2.079a11.644,11.644,0,0,1-11.61,11.61" fill="#fcdb4b"/>
    <path id="パス_2007" data-name="パス 2007" d="M311.663,19.837a13.159,13.159,0,0,0,1.838-.089c-.068.744-.084,1.294-.084,1.9v11.48a21.45,21.45,0,0,0,.1,2.267h-2.411v-.974h-7.453v.974h-2.377c.067-.673.1-1.417.1-2.267V21.7c0-.673-.035-1.293-.084-1.949a18.786,18.786,0,0,0,1.9.089Zm-.557,2.232h-7.453V25.86h7.453Zm-7.453,10.116h7.453V28.057h-7.453Z" fill="#0e5b00"/>
    <path id="パス_2008" data-name="パス 2008" d="M327.112,24.088a15.159,15.159,0,0,0,2.6,3.685,14.058,14.058,0,0,0,3.474,2.693,8.3,8.3,0,0,0-1.265,2.321,16.888,16.888,0,0,1-2.748-2.339v1.807a15.781,15.781,0,0,0-1.686-.089h-1.365v1.082a18.357,18.357,0,0,0,.117,2.285h-2.479a18.546,18.546,0,0,0,.118-2.285V32.166h-1.231a15.761,15.761,0,0,0-1.685.089V30.466a15.659,15.659,0,0,1-2.647,2.356,7.371,7.371,0,0,0-1.232-2.232,14.628,14.628,0,0,0,3.406-2.976,16.156,16.156,0,0,0,2.311-3.526h-3.1a15.481,15.481,0,0,0-2.074.124V21.768a14.97,14.97,0,0,0,2.074.124h4.18V20.723a11.27,11.27,0,0,0-.1-1.648h2.443a10.961,10.961,0,0,0-.1,1.648v1.169H330.5a14.374,14.374,0,0,0,2.107-.124v2.444a16,16,0,0,0-2.107-.124Zm-3.238,3.721a17.466,17.466,0,0,1,.1-1.754A15.637,15.637,0,0,1,321.362,30a9.746,9.746,0,0,0,1.164.036h1.348Zm3.777,2.232a8.783,8.783,0,0,0,1.1-.036,17.093,17.093,0,0,1-2.731-3.968c.084,1.01.1,1.347.1,1.736v2.268Z" fill="#0e5b00"/>
    <path id="パス_2009" data-name="パス 2009" d="M339.577,26.852a13.552,13.552,0,0,0-1.973.107v-1.2a13.934,13.934,0,0,1-1.685.868,8.349,8.349,0,0,0-1.2-2.214,14.669,14.669,0,0,0,3.962-2.162,11.387,11.387,0,0,0,2.8-3.029h2.444a11.856,11.856,0,0,0,2.968,2.976,14.014,14.014,0,0,0,4.063,2.109,10.378,10.378,0,0,0-1.162,2.391,13.846,13.846,0,0,1-1.823-.957v1.223a13.7,13.7,0,0,0-1.921-.107h-2.209v1.807H346.4a13.678,13.678,0,0,0,1.99-.106v2.321a14.239,14.239,0,0,0-2.006-.107h-2.546v2.109h4.046a19.58,19.58,0,0,0,2.311-.107v2.356a19.373,19.373,0,0,0-2.277-.106H337.638a18.394,18.394,0,0,0-2.225.106V32.769a18.172,18.172,0,0,0,2.275.107h3.9V30.767h-2.326a14.019,14.019,0,0,0-1.991.107V28.553a15.064,15.064,0,0,0,1.991.106h2.326V26.852Zm-.168-2.09h7.047a14.388,14.388,0,0,1-3.692-3.525,13.025,13.025,0,0,1-3.609,3.525Z" fill="#0e5b00"/>
    <path id="パス_2010" data-name="パス 2010" d="M353.188,21.68c0-.744-.033-1.364-.1-2.109a19.462,19.462,0,0,0,1.99.072H365.97a16.333,16.333,0,0,0,1.972-.089,19.092,19.092,0,0,0-.086,2.108v11.5a20.18,20.18,0,0,0,.1,2.374H365.7v-.974H355.364v.974h-2.277a18.829,18.829,0,0,0,.1-2.374ZM355.364,32.5h10.318V21.715H355.364Zm2.359-7.972a8.871,8.871,0,0,0-1.517.089V22.53a8.291,8.291,0,0,0,1.517.089h5.616a8.58,8.58,0,0,0,1.55-.089v2.091a8.853,8.853,0,0,0-1.535-.089h-1.9v1.453H363a6.9,6.9,0,0,0,1.4-.089v2.073a3.531,3.531,0,0,0-.775-.071,6.043,6.043,0,0,1,.707,1.24l-1.18.514h.338a9.124,9.124,0,0,0,1.566-.089v2.109a9.508,9.508,0,0,0-1.566-.089h-5.936a8.59,8.59,0,0,0-1.568.089V29.563a9.286,9.286,0,0,0,1.568.089h1.788V27.88h-1.282a7.388,7.388,0,0,0-1.416.089V25.9a7.18,7.18,0,0,0,1.416.089h1.282V24.532Zm3.727,5.12h1.383a6.822,6.822,0,0,0-.692-1.311l1.063-.461H361.45Z" fill="#0e5b00"/>
    <path id="パス_2011" data-name="パス 2011" d="M373.794,22.946a8.913,8.913,0,0,0-.086-1.343h1.925a8.934,8.934,0,0,0-.07,1.343V23.7h.815a9.3,9.3,0,0,0,1.378-.073v1.844a8.807,8.807,0,0,0-1-.045,16.294,16.294,0,0,1-.927,4.413c.716.914,1.152,1.49,1.953,2.655l-1.28,1.594a23.415,23.415,0,0,0-1.544-2.375,15.871,15.871,0,0,1-2.686,3.481,5.9,5.9,0,0,0-1.236-1.682,9.387,9.387,0,0,0,2.726-3.393,26.411,26.411,0,0,0-2.318-2.612l1.193-1.328c1.293,1.372,1.293,1.372,1.869,2.051a12.158,12.158,0,0,0,.465-2.8h-2.431a9.337,9.337,0,0,0-1.334.075V23.61a10.265,10.265,0,0,0,1.431.088h1.155Zm4.945,4.013a20.433,20.433,0,0,1,1.939,3.468l-1.531,1.033a14.1,14.1,0,0,0-1.926-3.66Zm.619-.767a7.957,7.957,0,0,0-1.322.074V24.333a8.067,8.067,0,0,0,1.336.073h1.685v-.929a11.4,11.4,0,0,0-.1-1.815h1.982a15.258,15.258,0,0,0-.07,1.815v.929h.084a7.272,7.272,0,0,0,1.279-.088v1.948a1.469,1.469,0,0,1-.324-.03,7.293,7.293,0,0,0-.942-.044h-.1v7.023c0,.989-.155,1.358-.633,1.653a2.885,2.885,0,0,1-1.336.236c-.492.015-.787.029-1.039.029s-.422,0-.815-.014a7.078,7.078,0,0,0-.521-1.918,14.119,14.119,0,0,0,1.744.162c.674,0,.785-.044.785-.339V26.192Z" fill="#0e5b00"/>
    <path id="パス_2012" data-name="パス 2012" d="M388.607,24.687a38.216,38.216,0,0,1-.395,6.964,13.431,13.431,0,0,1-1.068,3.586,7.562,7.562,0,0,0-1.488-1.55,9.7,9.7,0,0,0,.871-2.892,50.149,50.149,0,0,0,.295-5.887c0-.959-.014-1.549-.057-2.066a15.012,15.012,0,0,0,1.5.059h3.514v-.59a4.265,4.265,0,0,0-.071-.782h2a4,4,0,0,0-.056.812v.56h3.47a12.622,12.622,0,0,0,1.715-.088v1.948a13.847,13.847,0,0,0-1.715-.074h-4.089a20.215,20.215,0,0,1,3.175,2.213l-1.277,1.431A12.936,12.936,0,0,0,391.4,25.69l1.1-1Zm-.24,8.646a9.813,9.813,0,0,0,.759-2.7,23.374,23.374,0,0,0,.254-2.774l1.686.443a19.829,19.829,0,0,1-1.082,6.049Zm5.1-6.227a9.441,9.441,0,0,0-.07,1.417V32.9c0,.339.1.4.676.4s.757-.073.841-.354a12.346,12.346,0,0,0,.114-2.213,6.065,6.065,0,0,0,1.672.59c-.112,2.007-.225,2.745-.52,3.187-.309.473-.871.65-2.121.65a5.537,5.537,0,0,1-1.869-.192.907.907,0,0,1-.563-.974V28.508a8.739,8.739,0,0,0-.084-1.4Zm3.879,7.009a18.454,18.454,0,0,0-1.615-5.548l1.574-.8a27.991,27.991,0,0,1,1.8,5.46Z" fill="#0e5b00"/>
    <path id="パス_2013" data-name="パス 2013" d="M91.784,39.3H30.676a11.643,11.643,0,0,1-11.61-11.61V25.609A11.643,11.643,0,0,1,30.676,14H91.784a11.644,11.644,0,0,1,11.61,11.609v2.079A11.644,11.644,0,0,1,91.784,39.3" fill="#fcdb4b"/>
    <path id="パス_2014" data-name="パス 2014" d="M35.913,35.019c-.355-1.134-.456-1.435-.573-1.807a46.773,46.773,0,0,1-5.161,1.418,4.587,4.587,0,0,0-.505.124l-.456-2.41a4.148,4.148,0,0,0,1-.088V21.485c0-.709-.017-1.152-.068-1.772a14.02,14.02,0,0,0,1.686.071h3.743a13.381,13.381,0,0,0,1.67-.071c-.034.461-.051.726-.051,1.648v5.651c0,.691.017,1.116.051,1.506-.54-.036-.81-.053-1.383-.053H32.338v3.383c1.113-.248,1.635-.39,2.259-.585-.253-.567-.371-.85-.809-1.718l1.854-.744a34.077,34.077,0,0,1,2.277,5.208Zm-.844-13.2H32.338v1.364h2.731ZM32.338,26.5h2.731V25.1H32.338Zm12.19,4.677c0,1.754-.573,2.2-2.832,2.2-.2,0-.355,0-.759-.018A7.172,7.172,0,0,0,40.5,31a11.1,11.1,0,0,0,1.315.124c.488,0,.59-.089.59-.479V21.91H40.3V33.549a16.45,16.45,0,0,0,.1,2.126H38.071a15.753,15.753,0,0,0,.084-2.126V21.378c0-.762-.017-1.275-.051-1.665.557.053,1.028.071,1.518.071h3.439a14.2,14.2,0,0,0,1.534-.071,15.385,15.385,0,0,0-.067,1.648Z" fill="#0e5b00"/>
    <path id="パス_2015" data-name="パス 2015" d="M59.169,19.837a13.158,13.158,0,0,0,1.838-.089c-.068.744-.084,1.294-.084,1.9v11.48a21.447,21.447,0,0,0,.1,2.267H58.612v-.974H51.16v.974H48.782a22.561,22.561,0,0,0,.1-2.267V21.7c0-.673-.034-1.293-.084-1.949a18.793,18.793,0,0,0,1.905.089Zm-.557,2.232H51.16V25.86h7.452ZM51.16,32.185h7.452V28.057H51.16Z" fill="#0e5b00"/>
    <path id="パス_2016" data-name="パス 2016" d="M66.768,23.905c-.633,0-1.181.029-1.841.088V22.031a16.651,16.651,0,0,0,1.812.088h9.093a18.4,18.4,0,0,0,1.841-.088v1.962c-.492-.044-.829-.073-1.5-.088v9.429c0,1.549-.436,1.859-2.613,1.859-.367,0-.943-.015-1.476-.044a6.044,6.044,0,0,0-.478-1.933,16.517,16.517,0,0,0,2.051.147c.534,0,.647-.074.647-.458v-9Zm5.916,6.4a11.669,11.669,0,0,0,.056,1.239c-.281-.029-.928-.059-1.293-.059H68.159V32.64h-1.9a12.079,12.079,0,0,0,.084-1.372V26.6a9.921,9.921,0,0,0-.071-1.387,10.692,10.692,0,0,0,1.308.059h3.808a11.746,11.746,0,0,0,1.349-.059,10.228,10.228,0,0,0-.056,1.269Zm-4.539-.531H70.9V26.989H68.145Z" fill="#0e5b00"/>
    <path id="パス_2017" data-name="パス 2017" d="M85.024,26.236c-.155-.4-.211-.546-.309-.8-1.013.162-3.05.4-4.188.472-.352.029-.689.059-.928.1L79.416,24.1c.239.015.534.029.7.029h.324a9.945,9.945,0,0,0,1.082-2.714l1.924.294c-.1.207-.154.311-.266.546-.155.37-.563,1.151-.913,1.786.491-.03,1.067-.088,1.728-.162-.211-.428-.281-.561-.549-1.063l1.336-.664a20.183,20.183,0,0,1,1.658,2.981V22.872a7.814,7.814,0,0,0-.07-1.254h1.911a6.457,6.457,0,0,0-.07,1.166v.531a10.24,10.24,0,0,0,1.6-.679,6.5,6.5,0,0,0,1.335-.87l1.237,1.608c-.323.147-.323.147-1.069.517a18.917,18.917,0,0,1-3.105,1.194v.753c0,.34.126.384.913.384.9,0,1.223-.044,1.392-.192.126-.118.169-.443.182-1.4a5.969,5.969,0,0,0,1.687.5c-.112,1.49-.239,1.977-.605,2.316-.38.369-.969.458-2.867.458a5.417,5.417,0,0,1-1.826-.177.983.983,0,0,1-.647-1.048V25.366Zm-4.876,1.432c0-.487-.015-.93-.043-1.373a8.084,8.084,0,0,0,.956.045h3.386c.605,0,.871-.015,1.28-.045a11.832,11.832,0,0,0-.057,1.4v5.858c0,1.195-.477,1.579-1.953,1.579-.141,0-.365-.015-.675-.03a7.152,7.152,0,0,0-.337-1.755,4.094,4.094,0,0,0,.815.1c.323,0,.435-.059.435-.251v-.93H81.9v1.343a14.82,14.82,0,0,0,.071,1.682H80.063a11.341,11.341,0,0,0,.085-1.667Zm1.742.988h2.065V27.9H81.89Zm0,2.184h2.065v-.752H81.89Zm6.324-.885a8.752,8.752,0,0,0,2.993-1.446l1.265,1.564a20.6,20.6,0,0,1-4.258,1.682v1.151c0,.339.225.428,1.138.428.815,0,1.11-.059,1.251-.266.127-.177.155-.413.182-1.593a6.045,6.045,0,0,0,1.7.545c-.1,1.58-.225,2.052-.6,2.465-.408.457-.97.56-2.881.56a4.068,4.068,0,0,1-2.1-.295,1.01,1.01,0,0,1-.463-.988V29.733a10.156,10.156,0,0,0-.056-1.3H88.27a8.412,8.412,0,0,0-.056,1.195Z" fill="#0e5b00"/>
    <path id="パス_2018" data-name="パス 2018" d="M64.011,79.953c0-13.064,5.048-19.864,12.8-19.864s12.748,6.853,12.748,19.864c0,13.118-5,20.239-12.748,20.239s-12.8-7.121-12.8-20.239m18.46,0c0-10.708-2.4-13.707-5.66-13.707s-5.712,3-5.712,13.707c0,10.762,2.448,14.082,5.712,14.082s5.66-3.32,5.66-14.082" fill="#124700"/>
    <path id="パス_2019" data-name="パス 2019" d="M93.946,93.071h8.108V69.03H95.22V64.158a23.754,23.754,0,0,0,8.772-3.32h5.558V93.071h7.088v6.372H93.946Z" fill="#124700"/>
    <path id="パス_2020" data-name="パス 2020" d="M122.506,94.891c9.843-9.852,16.318-16.6,16.318-22.327,0-3.909-2.039-6.265-5.66-6.265-2.754,0-5,1.927-6.935,4.123l-4.079-4.283c3.467-3.909,6.833-6.051,11.983-6.051,7.14,0,11.882,4.765,11.882,12.047,0,6.747-5.915,13.707-12.647,21.1a61.814,61.814,0,0,1,6.17-.428H147.8v6.639H122.506Z" fill="#124700"/>
    <path id="パス_2021" data-name="パス 2021" d="M153.106,79.953c0-13.064,5.048-19.864,12.8-19.864s12.748,6.853,12.748,19.864c0,13.118-5,20.239-12.748,20.239s-12.8-7.121-12.8-20.239m18.46,0c0-10.708-2.4-13.707-5.66-13.707s-5.712,3-5.712,13.707c0,10.762,2.448,14.082,5.712,14.082s5.66-3.32,5.66-14.082" fill="#124700"/>
    <rect id="長方形_399" data-name="長方形 399" width="13.921" height="5.622" transform="translate(187.225 81.292)" fill="#124700"/>
    <path id="パス_2022" data-name="パス 2022" d="M209.306,95.694l3.978-4.765a7.991,7.991,0,0,0,5.813,2.837c4.335,0,7.9-3.319,8.211-13.278-2.091,2.731-5.3,4.337-7.752,4.337-6.323,0-10.861-3.855-10.861-11.94,0-7.871,5.4-12.8,11.882-12.8,7.138,0,13.564,5.729,13.564,19.008,0,14.724-6.986,21.1-14.585,21.1a13.6,13.6,0,0,1-10.25-4.5M220.984,79.2c1.989,0,4.386-1.231,6.12-4.23-.766-6.478-3.314-8.941-6.426-8.941-2.8,0-5.1,2.248-5.1,6.853,0,4.337,2.091,6.318,5.4,6.318" fill="#124700"/>
    <path id="パス_2023" data-name="パス 2023" d="M239.855,95.694l3.978-4.765a7.991,7.991,0,0,0,5.813,2.837c4.335,0,7.9-3.319,8.211-13.278-2.091,2.731-5.3,4.337-7.752,4.337-6.323,0-10.861-3.855-10.861-11.94,0-7.871,5.4-12.8,11.882-12.8,7.138,0,13.564,5.729,13.564,19.008,0,14.724-6.986,21.1-14.585,21.1a13.6,13.6,0,0,1-10.25-4.5M251.533,79.2c1.989,0,4.386-1.231,6.12-4.23-.766-6.478-3.314-8.941-6.426-8.941-2.8,0-5.1,2.248-5.1,6.853,0,4.337,2.091,6.318,5.4,6.318" fill="#124700"/>
    <path id="パス_2024" data-name="パス 2024" d="M269.078,94.784l3.468-5.033c2.141,2.195,4.793,4.015,8.311,4.015,3.927,0,6.681-2.409,6.681-6.746,0-4.283-2.55-6.693-6.374-6.693-2.244,0-3.468.589-5.661,2.088l-3.416-2.3,1.019-19.275h20.2v6.586H279.583l-.714,8.406a10.142,10.142,0,0,1,4.538-1.071c6.323,0,11.627,3.748,11.627,11.993,0,8.514-6.222,13.44-13.208,13.44a16.806,16.806,0,0,1-12.748-5.408" fill="#124700"/>
    <rect id="長方形_400" data-name="長方形 400" width="13.921" height="5.622" transform="translate(300.8 81.292)" fill="#124700"/>
    <path id="パス_2025" data-name="パス 2025" d="M341.036,67.424H324.055V60.838h25.089v4.819c-8.567,10.976-9.944,18.74-10.556,33.786h-7.6C331.653,86.111,334,77.7,341.036,67.424" fill="#124700"/>
    <path id="パス_2026" data-name="パス 2026" d="M352.345,81.185c0-14.724,6.986-21.1,14.635-21.1a13.469,13.469,0,0,1,10.2,4.5L373.2,69.3a8.183,8.183,0,0,0-5.813-2.837c-4.334,0-7.9,3.373-8.21,13.332,2.091-2.731,5.3-4.337,7.751-4.337,6.323,0,10.862,3.8,10.862,11.886,0,7.925-5.4,12.85-11.882,12.85-7.139,0-13.564-5.782-13.564-19.007m7.037,4.069c.714,6.532,3.264,9,6.374,9,2.856,0,5.15-2.3,5.15-6.907,0-4.337-2.141-6.318-5.4-6.318-1.937,0-4.232,1.125-6.119,4.23" fill="#124700"/>
    <path id="パス_2027" data-name="パス 2027" d="M399.318,67.424H382.337V60.838h25.089v4.819c-8.567,10.976-9.944,18.74-10.556,33.786h-7.6c.663-13.332,3.009-21.739,10.046-32.019" fill="#124700"/>
    <path id="パス_2028" data-name="パス 2028" d="M62.011,76.953c0-13.064,5.048-19.864,12.8-19.864s12.748,6.853,12.748,19.864c0,13.118-5,20.239-12.748,20.239s-12.8-7.121-12.8-20.239m18.46,0c0-10.708-2.4-13.707-5.66-13.707s-5.712,3-5.712,13.707c0,10.762,2.448,14.082,5.712,14.082s5.66-3.32,5.66-14.082" fill="#fff"/>
    <path id="パス_2029" data-name="パス 2029" d="M91.946,90.071h8.108V66.03H93.22V61.158a23.754,23.754,0,0,0,8.772-3.32h5.558V90.071h7.088v6.372H91.946Z" fill="#fff"/>
    <path id="パス_2030" data-name="パス 2030" d="M120.506,91.891c9.843-9.852,16.318-16.6,16.318-22.327,0-3.909-2.039-6.265-5.66-6.265-2.754,0-5,1.927-6.935,4.123l-4.079-4.283c3.467-3.909,6.833-6.051,11.983-6.051,7.14,0,11.882,4.765,11.882,12.047,0,6.747-5.915,13.707-12.647,21.1a61.814,61.814,0,0,1,6.17-.428H145.8v6.639H120.506Z" fill="#fff"/>
    <path id="パス_2031" data-name="パス 2031" d="M151.106,76.953c0-13.064,5.048-19.864,12.8-19.864s12.748,6.853,12.748,19.864c0,13.118-5,20.239-12.748,20.239s-12.8-7.121-12.8-20.239m18.46,0c0-10.708-2.4-13.707-5.66-13.707s-5.712,3-5.712,13.707c0,10.762,2.448,14.082,5.712,14.082s5.66-3.32,5.66-14.082" fill="#fff"/>
    <rect id="長方形_401" data-name="長方形 401" width="13.921" height="5.622" transform="translate(185.225 78.292)" fill="#fff"/>
    <path id="パス_2032" data-name="パス 2032" d="M207.306,92.694l3.978-4.765a7.991,7.991,0,0,0,5.813,2.837c4.335,0,7.9-3.319,8.211-13.278-2.091,2.731-5.3,4.337-7.752,4.337-6.323,0-10.861-3.855-10.861-11.94,0-7.871,5.4-12.8,11.882-12.8,7.138,0,13.564,5.729,13.564,19.008,0,14.724-6.986,21.1-14.585,21.1a13.6,13.6,0,0,1-10.25-4.5M218.984,76.2c1.989,0,4.386-1.231,6.12-4.23-.766-6.478-3.314-8.941-6.426-8.941-2.8,0-5.1,2.248-5.1,6.853,0,4.337,2.091,6.318,5.4,6.318" fill="#fff"/>
    <path id="パス_2033" data-name="パス 2033" d="M237.855,92.694l3.978-4.765a7.991,7.991,0,0,0,5.813,2.837c4.335,0,7.9-3.319,8.211-13.278-2.091,2.731-5.3,4.337-7.752,4.337-6.323,0-10.861-3.855-10.861-11.94,0-7.871,5.4-12.8,11.882-12.8,7.138,0,13.564,5.729,13.564,19.008,0,14.724-6.986,21.1-14.585,21.1a13.6,13.6,0,0,1-10.25-4.5M249.533,76.2c1.989,0,4.386-1.231,6.12-4.23-.766-6.478-3.314-8.941-6.426-8.941-2.8,0-5.1,2.248-5.1,6.853,0,4.337,2.091,6.318,5.4,6.318" fill="#fff"/>
    <path id="パス_2034" data-name="パス 2034" d="M267.078,91.784l3.468-5.033c2.141,2.195,4.793,4.015,8.311,4.015,3.927,0,6.681-2.409,6.681-6.746,0-4.283-2.55-6.693-6.374-6.693-2.244,0-3.468.589-5.661,2.088l-3.416-2.3,1.019-19.275h20.2v6.586H277.583l-.714,8.406a10.142,10.142,0,0,1,4.538-1.071c6.323,0,11.627,3.748,11.627,11.993,0,8.514-6.222,13.44-13.208,13.44a16.806,16.806,0,0,1-12.748-5.408" fill="#fff"/>
    <rect id="長方形_402" data-name="長方形 402" width="13.921" height="5.622" transform="translate(298.8 78.292)" fill="#fff"/>
    <path id="パス_2035" data-name="パス 2035" d="M339.036,64.424H322.055V57.838h25.089v4.819c-8.567,10.976-9.944,18.74-10.556,33.786h-7.6C329.653,83.111,332,74.7,339.036,64.424" fill="#fff"/>
    <path id="パス_2036" data-name="パス 2036" d="M350.345,78.185c0-14.724,6.986-21.1,14.635-21.1a13.469,13.469,0,0,1,10.2,4.5L371.2,66.3a8.183,8.183,0,0,0-5.813-2.837c-4.334,0-7.9,3.373-8.21,13.332,2.091-2.731,5.3-4.337,7.751-4.337,6.323,0,10.862,3.8,10.862,11.886,0,7.925-5.4,12.85-11.882,12.85-7.139,0-13.564-5.782-13.564-19.007m7.037,4.069c.714,6.532,3.264,9,6.374,9,2.856,0,5.15-2.3,5.15-6.907,0-4.337-2.141-6.318-5.4-6.318-1.937,0-4.232,1.125-6.119,4.23" fill="#fff"/>
    <path id="パス_2037" data-name="パス 2037" d="M397.318,64.424H380.337V57.838h25.089v4.819c-8.567,10.976-9.944,18.74-10.556,33.786h-7.6c.663-13.332,3.009-21.739,10.046-32.019" fill="#fff"/>
    <path id="パス_2038" data-name="パス 2038" d="M16.593,97.288A2.689,2.689,0,0,0,19,98.433c1.174.055,3.565.022,4.884-.076a5.211,5.211,0,0,0-.312.993c-1.195.054-3.376.076-4.583.032a3.386,3.386,0,0,1-2.815-1.255c-.5.448-1.019.9-1.6,1.354l-.457-1a16.142,16.142,0,0,0,1.548-1.135V94.735H14.245V93.8h2.348Zm-.457-5.052a8.2,8.2,0,0,0-1.735-1.8l.675-.633a8.4,8.4,0,0,1,1.777,1.7Zm2.349,5.619H17.58V92.269h2.671c-.561-.284-1.184-.567-1.715-.786l.624-.545c.406.153.883.349,1.34.556a8.218,8.218,0,0,0,1.144-.731H17.622v-.8h4.915l.2-.054.582.49a10.242,10.242,0,0,1-1.986,1.484c.271.131.51.262.707.382h1.279v4.648c0,.458-.074.687-.374.829a3.775,3.775,0,0,1-1.393.142,2.854,2.854,0,0,0-.26-.819c.437.022.831.011.956.011s.156-.043.156-.174v-.764H20.854v1.68h-.873v-1.68h-1.5Zm0-4.037h1.5v-.8h-1.5Zm1.5.742h-1.5v.818h1.5ZM22.4,93.022H20.854v.8H22.4Zm0,1.538H20.854v.818H22.4Z" fill="#124700"/>
    <path id="パス_2039" data-name="パス 2039" d="M25.117,91.4h3.876V92.2H25.117Zm3.575,7.7H26.416v.469h-.832V95.9h3.108Zm-.042-5.4H25.606v-.786H28.65Zm-3.044.7H28.65v.786H25.606ZM28.64,90.72H25.668v-.8H28.64Zm-2.224,7.572H27.86V96.721H26.416Zm5.964-4.638v1.659h1.871v4.211h-.956v-.48H30.562v.535h-.925V95.313h1.757V93.654H29.066v-.96h2.328V91.156c-.624.076-1.247.153-1.84.2a3.21,3.21,0,0,0-.28-.862,23.171,23.171,0,0,0,4.427-.775l.674.829A17.646,17.646,0,0,1,32.38,91v1.691h2.339v.96Zm.915,2.576H30.562v1.9h2.733Z" fill="#124700"/>
    <path id="パス_2040" data-name="パス 2040" d="M37.61,92.171a8.833,8.833,0,0,1-.79.785,6.4,6.4,0,0,0-.8-.665A7.249,7.249,0,0,0,38.2,89.563l.945.284a7.652,7.652,0,0,1-.5.916H45.04v.895H44.021v1.636h1.4v.917h-1.4v1.637h1.257v.916H36.353v-.916H37.61V94.211H36.2v-.917H37.61ZM36.1,99.186a4.907,4.907,0,0,0,1.225-2.062l.936.24a5.819,5.819,0,0,1-1.247,2.226Zm2.378-5.892h.967V91.658h-.967Zm0,2.554h.967V94.211h-.967Zm1.56,1.494a12.77,12.77,0,0,1,.26,1.986l-.947.142a12.613,12.613,0,0,0-.208-2.03Zm1.226-5.684H40.26v1.636h1.008Zm-1.008,4.19h1.008V94.211H40.26Zm1.87,1.45a10.433,10.433,0,0,1,.634,1.986l-.956.2a11.157,11.157,0,0,0-.581-2.029Zm.987-5.64H42.089v1.636h1.028Zm0,2.553H42.089v1.637h1.028Zm1.091,2.869a13.8,13.8,0,0,1,1.372,2.149l-.976.361a13.766,13.766,0,0,0-1.31-2.2Z" fill="#124700"/>
    <path id="パス_2041" data-name="パス 2041" d="M49.521,94.255c.311.349,1.308,1.68,1.527,2.008l-.613.8c-.177-.393-.571-1.08-.914-1.658v4.167h-.9V95.39A11.578,11.578,0,0,1,47.3,98.281a5.529,5.529,0,0,0-.468-1.015,10.97,10.97,0,0,0,1.5-3.131H47.006v-.949h1.61V89.618h.9v3.568h1.621v.949H49.521Zm-1.964-1.364a11.1,11.1,0,0,0-.52-2.465l.7-.186a11.649,11.649,0,0,1,.571,2.433Zm3.657-2.5c-.26.851-.582,1.865-.842,2.5l-.623-.207a19.957,19.957,0,0,0,.634-2.487Zm4.032,6.175v3.011h-.9V96.743l-3.076.589-.155-.938,3.231-.611V89.575h.9v6.033L56.4,95.4l.134.927ZM53.012,95a7.974,7.974,0,0,0-1.715-1.32l.458-.731a8.665,8.665,0,0,1,1.735,1.233Zm.416-2.64a7.616,7.616,0,0,0-1.621-1.408l.488-.687a8.436,8.436,0,0,1,1.642,1.32Z" fill="#124700"/>
    <path id="パス_2042" data-name="パス 2042" d="M15.472,96.166a2.686,2.686,0,0,0,2.411,1.146c1.174.054,3.564.022,4.884-.076a5.223,5.223,0,0,0-.312.992c-1.195.055-3.377.076-4.583.033a3.39,3.39,0,0,1-2.815-1.255c-.5.448-1.019.9-1.6,1.353l-.457-1a16.125,16.125,0,0,0,1.548-1.134V93.613H13.124v-.938h2.348Zm-.457-5.051a8.158,8.158,0,0,0-1.736-1.8l.676-.633a8.342,8.342,0,0,1,1.776,1.7Zm2.348,5.619h-.9V91.148H19.13c-.562-.284-1.185-.568-1.715-.786l.624-.545c.405.152.883.349,1.34.556a8.207,8.207,0,0,0,1.143-.731H16.5v-.8h4.915l.2-.054.582.491a10.306,10.306,0,0,1-1.985,1.484c.27.131.51.262.707.382h1.278v4.647c0,.459-.073.688-.374.829a3.747,3.747,0,0,1-1.392.142,2.911,2.911,0,0,0-.26-.818c.436.022.831.011.956.011s.155-.044.155-.175v-.763H19.732V96.7h-.873v-1.68h-1.5Zm0-4.037h1.5v-.8h-1.5Zm1.5.742h-1.5v.818h1.5ZM21.28,91.9H19.732v.8H21.28Zm0,1.538H19.732v.818H21.28Z" fill="#fff"/>
    <path id="パス_2043" data-name="パス 2043" d="M24,90.275h3.876v.808H24Zm3.574,7.7H25.3v.469h-.832V94.78H27.57Zm-.042-5.4H24.484v-.786h3.044Zm-3.044.7h3.044v.786H24.484ZM27.519,89.6H24.547v-.8h2.972ZM25.3,97.17h1.444V95.6H25.3Zm5.964-4.637v1.659H33.13V98.4h-.956v-.48H29.44v.534h-.924V94.192h1.756V92.533H27.944v-.96h2.328V90.035c-.624.076-1.247.153-1.839.2a3.212,3.212,0,0,0-.281-.862,23.065,23.065,0,0,0,4.427-.775l.675.83a18.148,18.148,0,0,1-2,.458v1.691H33.6v.96Zm.915,2.575H29.441v1.9h2.733Z" fill="#fff"/>
    <path id="パス_2044" data-name="パス 2044" d="M36.489,91.05a8.832,8.832,0,0,1-.79.785,6.4,6.4,0,0,0-.8-.665,7.249,7.249,0,0,0,2.182-2.728l.945.284a7.652,7.652,0,0,1-.5.916h6.391v.9H42.9v1.636h1.4v.917H42.9v1.637h1.257v.916H35.232v-.916h1.257V93.09H35.076v-.917h1.413Zm-1.506,7.015A4.907,4.907,0,0,0,36.208,96l.936.24A5.819,5.819,0,0,1,35.9,98.469Zm2.378-5.892h.967V90.537h-.967Zm0,2.554h.967V93.09h-.967Zm1.56,1.494a12.771,12.771,0,0,1,.26,1.986l-.947.142a12.613,12.613,0,0,0-.208-2.03Zm1.226-5.684H39.139v1.636h1.008Zm-1.008,4.19h1.008V93.09H39.139Zm1.87,1.45a10.434,10.434,0,0,1,.634,1.986l-.956.2a11.157,11.157,0,0,0-.581-2.029ZM42,90.537H40.968v1.636H42Zm0,2.553H40.968v1.637H42Zm1.091,2.869a13.8,13.8,0,0,1,1.372,2.149l-.976.361a13.766,13.766,0,0,0-1.31-2.2Z" fill="#fff"/>
    <path id="パス_2045" data-name="パス 2045" d="M48.4,93.133c.311.349,1.308,1.68,1.527,2.008l-.613.8c-.177-.393-.571-1.08-.914-1.658v4.167h-.905V94.268a11.578,11.578,0,0,1-1.319,2.891,5.529,5.529,0,0,0-.468-1.015,10.97,10.97,0,0,0,1.5-3.131H45.885v-.949h1.61V88.5H48.4v3.568h1.621v.949H48.4Zm-1.964-1.364a11.1,11.1,0,0,0-.52-2.465l.7-.186a11.648,11.648,0,0,1,.571,2.433Zm3.657-2.5c-.26.851-.582,1.865-.842,2.5l-.623-.207a19.957,19.957,0,0,0,.634-2.487Zm4.032,6.175v3.011h-.9V95.621l-3.076.589-.155-.938,3.231-.611V88.453h.9v6.033l1.154-.207.134.927Zm-2.234-1.571a7.974,7.974,0,0,0-1.715-1.32l.458-.731a8.666,8.666,0,0,1,1.735,1.233Zm.416-2.64a7.616,7.616,0,0,0-1.621-1.408l.488-.687a8.436,8.436,0,0,1,1.642,1.32Z" fill="#fff"/>
    <rect id="長方形_403" data-name="長方形 403" width="42.34" height="25.639" transform="translate(13.313 57)" fill="#fff"/>
    <path id="パス_2046" data-name="パス 2046" d="M23.837,76.611a5.12,5.12,0,0,1-5.264-5.1c0-2.667,2.846-4.8,5.264-6.072,2.416,1.275,5.263,3.4,5.263,6.072a5.119,5.119,0,0,1-5.263,5.1m16.13-5.159c0-2.668,2.845-4.8,5.262-6.072,2.418,1.273,5.263,3.4,5.263,6.072a5.265,5.265,0,0,1-10.525,0M55.885,60.537a25.673,25.673,0,0,0-10.823,2.269A24.5,24.5,0,0,0,34.48,60.537,24.5,24.5,0,0,0,23.9,62.806a25.637,25.637,0,0,0-10.815-2.269v2.27a23.12,23.12,0,0,1,8.14,1.433c-2.645,1.641-5.262,4.128-5.262,7.268,0,4.149,3.807,7.318,7.937,7.318a7.571,7.571,0,0,0,7.752-7.318c0-3.14-2.43-5.627-5.076-7.268a22.534,22.534,0,0,1,15.815,0c-2.645,1.641-5.077,4.128-5.077,7.268a7.571,7.571,0,0,0,7.752,7.318c4.13,0,7.879-3.169,7.879-7.318,0-3.14-2.558-5.627-5.2-7.268a23.16,23.16,0,0,1,8.148-1.433Z" fill="#157700"/>
  </g>
</svg>
